{
	"name": "Pastel",
	"type": "light",
	"colors": {
		"activityBar.background": "#8C9696",
		"editor.background": "#F7F2F2",
		"editor.foreground": "#333333",
		"editorGroupHeader.tabsBorder": "#D1D2CB",
		"editorGroupHeader.tabsBackground": "#EBDEDE",
		"editorLineNumber.foreground": "#788484",
		"editorLineNumber.activeForeground": "#0B216F",
		"editor.lineHighlightBackground": "#D7DFF2",
		"editor.selectionBackground": "#F8E4E4",
		"editorBracketMatch.background": "#C3C4C588",
		"list.activeSelectionBackground": "#F8F7F9",
		"list.activeSelectionForeground": "#535353",
		"sideBar.background": "#E5E6DD",
		"sideBar.border": "#D1D2CB",
		"statusBar.background": "#D66D22",
		"tab.activeBorder": "#F7F2F2",
		"tab.border": "#D1D2CB",
		"tab.inactiveBackground": "#E5E6DD"
	},
	"tokenColors": [
		{
			"name": "Comments",
			"scope": [
				"comment",
				"punctuation.definition.comment"
			],
			"settings": {
				"foreground": "#E5A33D"
			}
		},
		// {
		// 	"name": "Comments: Preprocessor",
		// 	"scope": "comment.block.preprocessor",
		// 	"settings": {
		// 		"fontStyle": "",
		// 		"foreground": "#AAAAAA"
		// 	}
		// },
		// {
		// 	"name": "Comments: Documentation",
		// 	"scope": [
		// 		"comment.documentation",
		// 		"comment.block.documentation"
		// 	],
		// 	"settings": {
		// 		"foreground": "#448C27"
		// 	}
		// },
		// {
		// 	"name": "Invalid - Illegal",
		// 	"scope": "invalid.illegal",
		// 	"settings": {
		// 		"foreground": "#660000"
		// 	}
		// },
		{
			"name": "Operators",
			"scope": "keyword.operator",
			"settings": {
				"foreground": "#557187"
			}
		},
		{
			"name": "Keywords",
			"scope": [
				"keyword",
				"storage"
			],
			"settings": {
				"foreground": "#557187"
			}
		},
		// {
		// 	"name": "Types",
		// 	"scope": [
		// 		"storage.type",
		// 		"support.type"
		// 	],
		// 	"settings": {
		// 		"foreground": "#7A3E9D"
		// 	}
		// },
		{
			"name": "Language Constants",
			"scope": [
				"constant.language",
				"support.constant",
				"variable.language"
			],
			"settings": {
				"foreground": "#D66D22"
			}
		},
		{
			"name": "Variables",
			"scope": [
				"variable",
				"support.variable"
			],
			"settings": {
				"foreground": "#b68aa9"
			}
		},
		{
			"name": "Functions",
			"scope": [
				"entity.name.function",
				"support.function"
			],
			"settings": {
				"foreground": "#00AFD6"
			}
		},
		{
			"name": "Classes",
			"scope": [
				"entity.name.type",
				"entity.other.inherited-class",
				"support.class"
			],
			"settings": {
				"foreground": "#D66D22"
			}
		},
		// {
		// 	"name": "Exceptions",
		// 	"scope": "entity.name.exception",
		// 	"settings": {
		// 		"foreground": "#660000"
		// 	}
		// },
		// {
		// 	"name": "Sections",
		// 	"scope": "entity.name.section",
		// 	"settings": {
		// 		"fontStyle": "bold"
		// 	}
		// },
		{
			"name": "Numbers, Characters",
			"scope": [
				"constant.numeric",
				"constant.character",
				"constant"
			],
			"settings": {
				"foreground": "#99BC87"
			}
		},
		{
			"name": "Strings",
			"scope": "string",
			"settings": {
				"foreground": "#448C27"
			}
		},
		{
			"name": "Strings: Escape Sequences",
			"scope": "constant.character.escape",
			"settings": {
				"foreground": "#D66D22"
			}
		},
		{
			"name": "Strings: Regular Expressions",
			"scope": "string.regexp",
			"settings": {
				"foreground": "#C54242"
			}
		},
		// {
		// 	"name": "Strings: Symbols",
		// 	"scope": "constant.other.symbol",
		// 	"settings": {
		// 		"foreground": "#AB6526"
		// 	}
		// },
		// {
		// 	"name": "Punctuation",
		// 	"scope": "punctuation",
		// 	"settings": {
		// 		"foreground": "#777777"
		// 	}
		// },
		{
			"name": "HTML: Doctype Declaration",
			"scope": [
				"meta.tag.sgml.doctype",
				"meta.tag.sgml.doctype string",
				"meta.tag.sgml.doctype entity.name.tag",
				"meta.tag.sgml punctuation.definition.tag.html"
			],
			"settings": {
				"foreground": "#AAAAAA"
			}
		},
		{
			"name": "HTML: Tags",
			"scope": [
				"meta.tag",
				"punctuation.definition.tag.html",
				"punctuation.definition.tag.begin.html",
				"punctuation.definition.tag.end.html"
			],
			"settings": {
				"foreground": "#333"
			}
		},
		{
			"name": "HTML: Tag Names",
			"scope": "entity.name.tag",
			"settings": {
				"foreground": "#823326"
			}
		},
		{
			"name": "HTML: Attribute Names",
			"scope": [
				"meta.tag entity.other.attribute-name",
				"entity.other.attribute-name.html"
			],
			"settings": {
				"foreground": "#435b91"
			}
		},
		// {
		// 	"name": "HTML: Entities",
		// 	"scope": [
		// 		"constant.character.entity",
		// 		"punctuation.definition.entity"
		// 	],
		// 	"settings": {
		// 		"foreground": "#AB6526"
		// 	}
		// },
		{
			"name": "CSS: Selectors",
			"scope": [
				"meta.selector",
				"meta.selector entity",
				"meta.selector entity punctuation",
				"entity.name.tag.css",
				"entity.other.attribute-name"
			],
			"settings": {
				"foreground": "#E5A33D"
			}
		},
		{
			"name": "CSS: Property Names",
			"scope": [
				"meta.property-name",
				"support.type.property-name"
			],
			"settings": {
				"foreground": "#B68AA9"
			}
		},
		{
			"name": "CSS: Property Values",
			"scope": [
				"meta.property-value",
				"meta.property-value constant.other",
				"support.constant.property-value"
			],
			"settings": {
				"foreground": "#823326"
			}
		},
		{
			"name": "CSS: Keyword",
			"scope": "keyword.other",
			"settings": {
				"foreground": "#99BC87"
			}
		},
		{
			"name": "CSS: Important Keyword",
			"scope": "keyword.other.important",
			"settings": {
				"fontStyle": "bold"
			}
		},
		// {
		// 	"name": "Markup: Changed",
		// 	"scope": "markup.changed",
		// 	"settings": {
		// 		"foreground": "#000000"
		// 	}
		// },
		// {
		// 	"name": "Markup: Deletion",
		// 	"scope": "markup.deleted",
		// 	"settings": {
		// 		"foreground": "#000000"
		// 	}
		// },
		{
			"name": "Markup: Emphasis",
			"scope": "markup.italic",
			"settings": {
				"fontStyle": "italic"
			}
		},
		{
			"name": "Markup: Error",
			"scope": "markup.error",
			"settings": {
				"foreground": "#660000"
			}
		},
		{
			"name": "Markup: Insertion",
			"scope": "markup.inserted",
			"settings": {
				"foreground": "#000000"
			}
		},
		{
			"name": "Markup: Link",
			"scope": "meta.link",
			"settings": {
				"foreground": "#4B83CD"
			}
		},
		{
			"name": "Markup: Output",
			"scope": [
				"markup.output",
				"markup.raw"
			],
			"settings": {
				"foreground": "#777777"
			}
		},
		{
			"name": "Markup: Prompt",
			"scope": "markup.prompt",
			"settings": {
				"foreground": "#777777"
			}
		},
		{
			"name": "Markup: Heading",
			"scope": "markup.heading",
			"settings": {
				"foreground": "#00AFD6"
			}
		},
		{
			"name": "Markup: Strong",
			"scope": "markup.bold",
			"settings": {
				"fontStyle": "bold"
			}
		},
		{
			"name": "Markup: Traceback",
			"scope": "markup.traceback",
			"settings": {
				"foreground": "#660000"
			}
		},
		{
			"name": "Markup: Underline",
			"scope": "markup.underline",
			"settings": {
				"fontStyle": "underline"
			}
		},
		{
			"name": "Markup Quote",
			"scope": "markup.quote",
			"settings": {
				"foreground": "#7A3E9D"
			}
		},
		{
			"name": "Markup Lists",
			"scope": "markup.list",
			"settings": {
				"foreground": "#4B83CD"
			}
		},
		{
			"name": "Markup Styling",
			"scope": [
				"markup.bold",
				"markup.italic"
			],
			"settings": {
				"foreground": "#D66D22"
			}
		},
		{
			"name": "Markup Inline",
			"scope": "markup.inline.raw",
			"settings": {
				"fontStyle": "",
				"foreground": "#AB6526"
			}
		},
		{
			"name": "Extra: Diff Range",
			"scope": [
				"meta.diff.range",
				"meta.diff.index",
				"meta.separator"
			],
			"settings": {
				"foreground": "#434343"
			}
		},
		{
			"name": "Extra: Diff From",
			"scope": "meta.diff.header.from-file",
			"settings": {
				"foreground": "#434343"
			}
		},
		{
			"name": "Extra: Diff To",
			"scope": "meta.diff.header.to-file",
			"settings": {
				"foreground": "#434343"
			}
		},
		/* Custom styles below */
		{
			"name": "Blocks",
			"scope": "meta.block",
			"settings": {
				"foreground": "#2d3d61"
			}
		},
		{
			"name": "Object Key",
			"scope": [
				"meta.object-literal.key",
				"variable.object.property"
			],
			"settings": {
				"foreground": "#978ab6"
			}
		},
		{
			"name": "Double Quoted Strings",
			"scope": "string.quoted.double",
			"settings": {
				"foreground": "#2AA198"
			}
		},
		{
			"name": "Markdown Paragraph",
			"scope": "meta.paragraph.markdown",
			"settings": {
				"foreground": "#384c79"
			}
		},
		{
			"name": "HTML Block",
			"scope": [
				"meta.tag.block.any.html",
				"punctuation.definition.tag.begin.html",
				"punctuation.definition.tag.end.html"
			],
			"settings": {
				"foreground": "#823326"
			}
		},
		{
			"name": "Vue Directive",
			"scope": "source.directive.vue",
			"settings": {
				"foreground": "#333333"
			}
		},
		{
			"name": "String Template Begin/End",
			"scope": [
				"punctuation.definition.template-expression",
				"meta.embedded"
			],
			"settings": {
				"foreground": "#2d3d61"
			}
		}
	]
}